…
#For each individual, summarize average proportion of missing genotypes, and average and standard deviation of  depth and genotype quality.
genos %>% 
  group_by(IND) %>% 
  summarise(
    missing = mean(is.na(GT)),
    dp = mean(DP),
    dp_std = sd(DP),
    gq = mean(GQ),
    gq_std = sd(GQ)
    )
```

```
# A tibble: 195 x 6
   IND       missing    dp dp_std    gq gq_std
   <chr>       <dbl> <dbl>  <dbl> <dbl>  <dbl>
 1 JRIAL1-1    0.706 1.05    2.44  3.71   9.80
 2 JRIAL1-10   0.753 0.662   1.69  2.37   7.03
 3 JRIAL1-11   0.633 1.77    3.93  5.67  13.0 
 4 JRIAL1-12   0.701 1.18    2.85  3.99  10.5 
 5 JRIAL1-13   0.662 1.31    2.92  4.49  11.1 
 6 JRIAL1-14   0.693 1.07    2.43  3.78   9.99
 7 JRIAL1-15   0.595 1.15    2.09  3.91   7.93
 8 JRIAL1-16   0.722 0.788   1.88  2.70   7.74
 9 JRIAL1-17   0.675 1.13    2.44  3.96   9.81
10 JRIAL1-18   0.714 0.848   2.05  2.96   8.00
# … with 185 more rows
```
…
